{
    "Portfolio": {
        "component": "PortfolioGrid",
        "name": "PORTFOLIO"
    },
    "Terminal": {
        "component": "TerminalHOC",
        "name": "TERMINAL"
    },
    "OMS": {
        "component": "OrderManagement",
        "name": "OMS"
    },
    "LivePrice": {
        "component": "LivepriceGrid",
        "name": "LIVE PRICES"
    }
}